Tokens	1.0	1.0	1.0
Sentences	1.0	1.0	1.0
Words	1.0	1.0	1.0
UPOS	1.0	1.0	1.0
XPOS	1.0	1.0	1.0
Feats	1.0	1.0	1.0
AllTags	1.0	1.0	1.0
Lemmas	1.0	1.0	1.0
UAS	0.6893840104849279	0.6893840104849279	0.6893840104849279
LAS	0.6024464831804281	0.6024464831804281	0.6024464831804281
