Tokens	1.0	1.0	1.0
Sentences	1.0	1.0	1.0
Words	1.0	1.0	1.0
UPOS	1.0	1.0	1.0
XPOS	1.0	1.0	1.0
Feats	1.0	1.0	1.0
AllTags	1.0	1.0	1.0
Lemmas	1.0	1.0	1.0
UAS	0.6930974224552207	0.6930974224552207	0.6930974224552207
LAS	0.6068152031454783	0.6068152031454783	0.6068152031454783
